<svg width="58" height="56" viewBox="0 0 58 56" fill="none" xmlns="http://www.w3.org/2000/svg">
<g clip-path="url(#clip0)">
<path d="M42.1812 3.3903C37.2215 3.09597 32.7768 5.03234 29.6336 8.2355C29.2808 8.59502 28.6982 8.59502 28.3454 8.2355C25.2024 5.03245 20.7581 3.09619 15.7987 3.39019C6.31143 3.95281 -0.432056 12.6318 0.668394 21.9248C2.25162 35.2943 15.8447 46.7229 23.6086 52.2475C24.1111 52.605 24.7587 52.7252 25.3471 52.5328C26.5223 52.1485 26.876 50.7847 26.2723 49.4052C23.8969 43.9777 29.5636 41.6699 28.5302 36.3614C28.5302 36.3614 34.309 38.826 32.7782 45.3858C32.1716 47.9853 32.5699 49.6556 33.1716 50.6997C33.702 51.6202 34.9293 51.8742 35.7887 51.2384C43.7239 45.3685 55.9473 34.4018 57.3333 21.7257C58.3417 12.5027 51.5878 3.94866 42.1812 3.3903Z" fill="#FF8086"/>
<path d="M36.5093 44.6678C40.1454 38.7421 40.4196 34.9617 40.2886 33.3104C40.2467 32.7821 39.7494 32.4118 39.2186 32.5002L36.3945 32.9707C36.9656 21.2087 31.183 15.5356 28.4367 13.5202C27.8631 13.0993 27.0432 13.4711 26.9918 14.1734C26.4882 21.0491 22.158 26.5854 22.158 26.5854L20.6196 24.7017C20.2131 24.204 19.423 24.2654 19.1046 24.8221C18.3643 26.1165 17.2544 28.4068 16.8958 31.0118C16.0935 36.8405 18.7313 40.7134 21.6413 44.9504C23.019 46.9565 21.1116 49.7064 18.5919 48.4204C20.3831 49.887 22.1075 51.1984 23.5959 52.2579C24.0943 52.6127 24.7364 52.7395 25.3221 52.5543C26.5114 52.1781 26.8788 50.7915 26.2721 49.4052C24.1606 44.5808 28.4033 42.2212 28.6466 38.0281C28.6894 37.2876 29.5781 36.9224 30.1615 37.3919C31.7395 38.6616 33.7588 41.1833 32.778 45.3859C32.1708 47.9879 32.5752 49.6562 33.1731 50.7028C33.707 51.6373 34.9737 51.8415 35.8379 51.202C37.0347 50.3163 38.3515 49.2946 39.6942 48.185C37.3117 49.3573 35.2177 46.7727 36.5093 44.6678Z" fill="#FFE07D"/>
<path d="M22.7471 51.6443C23.0356 51.8544 23.3207 52.0608 23.5964 52.2572C24.0947 52.6124 24.7372 52.7394 25.3229 52.5542C26.5122 52.1779 26.8795 50.7914 26.2729 49.405C24.157 44.5705 28.4229 42.2327 28.6488 38.0018C28.6864 37.2967 29.578 36.9225 30.1557 37.3864C31.7346 38.6543 33.7609 41.1773 32.7788 45.3856C32.1716 47.9876 32.5755 49.6563 33.1739 50.7025C33.7095 51.6388 34.9767 51.8396 35.8408 51.2001C36.1652 50.96 36.5248 50.6888 36.8622 50.4321C35.1337 50.3085 33.8633 49.6541 34.3861 47.1541C35.1447 43.5274 36.8236 35.32 29.2877 31.2262C28.676 30.894 27.9277 31.3281 27.9272 32.0157C27.9263 33.7178 27.5638 36.2059 25.3626 35.5613C24.8918 35.4234 24.3831 35.6828 24.232 36.143C23.6343 37.9636 22.5898 42.2798 24.1106 46.9844C24.9953 49.7218 24.4712 51.587 22.7471 51.6443Z" fill="#FFD064"/>
<path d="M19.2198 45.8714C19.487 45.5309 19.5208 45.0712 19.2866 44.708C16.628 40.5852 10.7319 30.4116 9.79276 20.8144C9.09743 13.7083 12.2441 6.97659 17.3924 3.37356C16.8702 3.35442 16.3366 3.35934 15.8015 3.39106C6.43374 3.94504 -0.327184 12.4368 0.635155 21.6261C1.51183 29.9974 7.11886 37.6218 13.1231 43.5389C15.1461 44.7649 16.8364 45.631 17.9553 46.1648C18.39 46.3723 18.915 46.2602 19.2103 45.8837C19.2134 45.8795 19.2166 45.8755 19.2198 45.8714Z" fill="#E5646E"/>
</g>
<defs>
<clipPath id="clip0">
<rect width="56.8892" height="56" fill="white" transform="translate(0.543945)"/>
</clipPath>
</defs>
</svg>
