<svg width="82" height="82" viewBox="0 0 82 82" fill="none" xmlns="http://www.w3.org/2000/svg">
<g clip-path="url(#clip0)">
<path d="M80.7966 25.398H71.0527C71.7843 24.7761 72.477 23.9991 73.038 23.026C74.9283 19.7459 74.7404 15.325 72.4796 9.8863C70.8409 5.94403 68.4083 3.72395 65.2496 3.28782C57.1283 2.16671 47.0303 13.8262 44.9509 16.349H37.0487C35.8856 14.9405 32.162 10.6145 27.6963 7.30214C27.1625 6.90613 26.4088 7.01797 26.0128 7.55181C25.6168 8.08565 25.7287 8.83932 26.2625 9.23533C30.5796 12.4376 34.2823 16.7792 35.2723 17.9799V25.3982H16.4311C15.9329 25.3109 12.6541 24.6362 11.0354 21.8036C9.55185 19.2071 9.78981 15.5084 11.7429 10.8104C12.7979 8.27258 14.1894 6.64892 15.8788 5.98414C17.538 5.33141 19.5995 5.55556 22.0059 6.65068C22.6108 6.92603 23.3244 6.65887 23.5997 6.05394C23.8751 5.44902 23.6079 4.73547 23.003 4.46012C19.9803 3.08436 17.287 2.84368 14.9976 3.74448C12.678 4.65716 10.8352 6.72353 9.5204 9.88646C7.25956 15.3252 7.07167 19.7461 8.96201 23.0261C9.52297 23.9995 10.2155 24.7762 10.9472 25.3982H1.20343C0.538815 25.3982 0 25.937 0 26.6016V38.4891C0 39.1537 0.538815 39.6925 1.20343 39.6925H6.07972V73.5598C6.07972 76.4436 8.42576 78.7896 11.3095 78.7896H19.506C20.1706 78.7896 20.7094 78.2508 20.7094 77.5862C20.7094 76.9216 20.1706 76.3828 19.506 76.3828H11.3095C9.7529 76.3828 8.48658 75.1164 8.48658 73.5598V39.6923H33.8462V76.3824H24.3197C23.6551 76.3824 23.1163 76.9213 23.1163 77.5859C23.1163 78.2505 23.6551 78.7893 24.3197 78.7893H70.6905C73.5742 78.7893 75.9203 76.4433 75.9203 73.5595V39.6923H80.7966C81.4612 39.6923 82 39.1535 82 38.4889V26.6014C82 25.9368 81.4612 25.398 80.7966 25.398ZM53.0051 11.4626C57.7596 7.254 61.8795 5.25054 64.9214 5.67238C67.2059 5.98832 68.9511 7.66894 70.2571 10.8104C72.21 15.5086 72.4482 19.2071 70.9646 21.8036C69.3467 24.6349 66.0695 25.3104 65.5692 25.3982H46.7278V17.9798C47.5011 17.0412 49.9294 14.1853 53.0051 11.4626ZM37.679 18.7559H44.3211V25.398H37.679V18.7559ZM2.40686 37.2855V27.8049H16.3341C16.3349 27.8049 16.3357 27.805 16.3365 27.805C16.3376 27.805 16.3387 27.8049 16.3398 27.8049H33.8462V37.2855H2.40686ZM36.253 27.8049H45.7468V76.3824H36.253V27.8049ZM79.5931 37.2855H66.7855C66.1208 37.2855 65.582 37.8243 65.582 38.4889C65.582 39.1535 66.1208 39.6923 66.7855 39.6923H73.5134V73.5597C73.5134 75.1163 72.2471 76.3826 70.6905 76.3826H48.1537V39.6923H61.9717C62.6364 39.6923 63.1752 39.1535 63.1752 38.4889C63.1752 37.8243 62.6364 37.2855 61.9717 37.2855H48.1537V27.8049H65.6599C65.661 27.8049 65.6621 27.805 65.6632 27.805C65.664 27.805 65.6648 27.8049 65.6656 27.8049H79.593V37.2855H79.5931Z" fill="#078981"/>
</g>
<defs>
<clipPath id="clip0">
<rect width="82" height="82" fill="white"/>
</clipPath>
</defs>
</svg>
